{
    "count": 23767,
    "next": "https://api.spaceflightnewsapi.net/v4/articles/?limit=10&offset=10",
    "previous": null,
    "results": [
        {
            "id": 27112,
            "title": "POLARIS Spaceplanes Begins Flight Tests of MIRA II Demonstrator",
            "url": "https://europeanspaceflight.com/polaris-spaceplanes-begins-flight-tests-of-mira-ii-demonstrator/",
            "image_url": "https://europeanspaceflight.com/wp-content/uploads/2024/11/POLARIS-Spaceplanes-Begin-Flight-Tests-of-MIRA-II-Demonstrator.jpg",
            "news_site": "European Spaceflight",
            "summary": "Bremen-based POLARIS Spaceplanes completed an initial flight test campaign of its MIRA II demonstrator between 25 and 27 October. The company is now preparing for the vehicle’s first rocket-powered flight. Founded in 2019, POLARIS Spaceplanes is developing a multipurpose spaceplane and a hypersonic transport system called AURORA. In addition to providing hypersonic testing capabilities, the […]",
            "published_at": "2024-11-04T09:23:39Z",
            "updated_at": "2024-11-04T09:26:32.060678Z",
            "featured": false,
            "launches": [],
            "events": []
        },
        {
            "id": 27111,
            "title": "Japan launches Kirameki 3 military communications satellite with H3 rocket",
            "url": "https://spacenews.com/japan-launches-kirameki-3-military-communications-satellite-with-h3-rocket/",
            "image_url": "https://i0.wp.com/spacenews.com/wp-content/uploads/2024/11/kirameki-3-H3-launch-4nov2024-JAXA-2.jpg",
            "news_site": "SpaceNews",
            "summary": "HELSINKI — Japan launched the Kirameki 3 communications satellite for defense purposes early Monday with the fourth flight of the H3 rocket. The Mitsubishi Heavy Industries (MHI) H3 rocket lifted […]",
            "published_at": "2024-11-04T08:35:07Z",
            "updated_at": "2024-11-04T08:36:13.670382Z",
            "featured": false,
            "launches": [],
            "events": []
        },
        {
            "id": 27110,
            "title": "What’s Happening in Space Policy November 3-9, 2024",
            "url": "https://spacepolicyonline.com/news/whats-happening-in-space-policy-november-3-9-2024/",
            "image_url": "https://spacepolicyonline.com/wp-content/uploads/2024/11/Dragon-Freedom-ISS-Oct-8-2024-300x175.webp",
            "news_site": "SpacePolicyOnline.com",
            "summary": "Here is SpacePolicyOnline.com’s list of space policy events for the week of November 3-9, 2024 and any insight we can offer about them. The House and Senate are in recess...",
            "published_at": "2024-11-03T23:09:46Z",
            "updated_at": "2024-11-03T23:16:33.979232Z",
            "featured": false,
            "launches": [],
            "events": []
        },
        {
            "id": 27108,
            "title": "Airbus keeps options open for European industry consolidation",
            "url": "https://spacenews.com/airbus-keeps-options-open-for-european-industry-consolidation/",
            "image_url": "https://i0.wp.com/spacenews.com/wp-content/uploads/2024/06/superbird9.jpg",
            "news_site": "SpaceNews",
            "summary": "Airbus is keeping its options open for some kind of merger of its space business with another company as it continues to assess potential additional losses there.",
            "published_at": "2024-11-03T23:04:22Z",
            "updated_at": "2024-11-03T23:06:13.666296Z",
            "featured": false,
            "launches": [],
            "events": []
        },
        {
            "id": 27109,
            "title": "Shenzhou-18 Crew Back on Earth",
            "url": "https://spacepolicyonline.com/news/shenzhou-18-crew-back-on-earth/",
            "image_url": "https://spacepolicyonline.com/wp-content/uploads/2024/11/sz-18-chute-300x152.png",
            "news_site": "SpacePolicyOnline.com",
            "summary": "China has completed another crew rotation on its Tiangong-3 space station. The Shenzhou-18 crew landed in the Gobi Desert today after about six months in space. Their replacements on Shenzhou-19...",
            "published_at": "2024-11-03T23:00:42Z",
            "updated_at": "2024-11-03T23:06:38.313349Z",
            "featured": false,
            "launches": [],
            "events": []
        },
        {
            "id": 27107,
            "title": "Helium issue on Falcon 9 booster scrubs Starlink 6-77 mission at Cape Canaveral",
            "url": "https://spaceflightnow.com/2024/11/03/live-coverage-spacex-to-launch-starlink-satellites-on-a-falcon-9-rocket-from-cape-canaveral/",
            "image_url": "http://spaceflightnow.com/wp-content/uploads/2024/11/20241103-Rainbow-Starlink-6-77.jpg",
            "news_site": "Spaceflight Now",
            "summary": "Liftoff from pad 40 at Cape Canaveral Space Force Station was set for 4:57 p.m. EST (2157 UTC) Sunday before the mission was scrubbed. SpaceX has not announce a new launch date or time for the mission.",
            "published_at": "2024-11-03T17:57:45Z",
            "updated_at": "2024-11-03T23:06:13.496269Z",
            "featured": false,
            "launches": [],
            "events": []
        },
        {
            "id": 27106,
            "title": "ULA’s Vulcan rocket in “final phase” of certification, awaiting first national security launch date",
            "url": "https://spaceflightnow.com/2024/11/03/ulas-vulcan-rocket-in-final-phase-of-certification-awaiting-first-national-security-launch-date/",
            "image_url": "http://spaceflightnow.com/wp-content/uploads/2024/11/20241101_Vulcan_USSF-106_stacking.jpeg",
            "news_site": "Spaceflight Now",
            "summary": "Vulcan completed the second of two planned certification mission on Oct. 4. ULA began stacking the rocket for the USSF-106 mission on Oct. 21.",
            "published_at": "2024-11-03T12:14:52Z",
            "updated_at": "2024-11-03T12:16:13.462067Z",
            "featured": false,
            "launches": [],
            "events": []
        },
        {
            "id": 27105,
            "title": "Launch of DLR Reusable Flight Experiment Pushed to Late 2026",
            "url": "https://europeanspaceflight.com/launch-of-dlr-reusable-flight-experiment-pushed-to-late-2026/",
            "image_url": "https://europeanspaceflight.com/wp-content/uploads/2024/11/Launch-of-DLR-Reusable-Flight-Experiment-Pushed-to-Late-2026.jpg",
            "news_site": "European Spaceflight",
            "summary": "The German Space Agency, DLR has revealed that the launch of its Reusable Flight Experiment (ReFEx) demonstrator has slipped by another year to late 2026. Work on the ReFEx demonstrator began in 2017 with the aim of demonstrating a winged reusable rocket first stage. The 2.7-metre demonstrator has a wingspan of 1.1 metres and a […]",
            "published_at": "2024-11-02T07:19:53Z",
            "updated_at": "2024-11-02T07:20:05.258458Z",
            "featured": false,
            "launches": [],
            "events": []
        },
        {
            "id": 27104,
            "title": "Starship booster catch brings NASA, SpaceX closer to Artemis 3 Moon landing",
            "url": "https://spaceflightnow.com/2024/11/01/starship-booster-catch-brings-nasa-spacex-closer-to-artemis-3-moon-landing/",
            "image_url": "http://spaceflightnow.com/wp-content/uploads/2024/10/20241013-Starshipe-5-SHB-Catch.jpg",
            "news_site": "Spaceflight Now",
            "summary": "As a milestone for NASA’s Human Landing System program, SpaceX is working towards an on-orbit propellant transfer demonstration campaign, beginning in spring 2025. The Artemis 3 Moon landing is targeting touchdown in Fall 2026.",
            "published_at": "2024-11-01T22:34:26Z",
            "updated_at": "2024-11-01T22:39:47.362440Z",
            "featured": false,
            "launches": [],
            "events": []
        },
        {
            "id": 27103,
            "title": "Globalstar soars on Apple’s $1.5 billion satellite investment",
            "url": "https://spacenews.com/globalstar-soars-on-apples-1-5-billion-satellite-investment/",
            "image_url": "https://i0.wp.com/spacenews.com/wp-content/uploads/2022/10/Apple_Globalstar_SOS_SpaceNews_Ilustration.jpg",
            "news_site": "SpaceNews",
            "summary": "Satellite operator Globalstar stock closed up more than 30% Nov. 1 after disclosing Apple’s plans to invest $1.5 billion in a new constellation to improve space-based communications for iPhones.",
            "published_at": "2024-11-01T21:24:23Z",
            "updated_at": "2024-11-01T21:29:47.575041Z",
            "featured": false,
            "launches": [],
            "events": []
        }
    ]
}